[
    {
        "id": "255aea8e.5e0ab6",
        "type": "tab",
        "label": "Flow 1",
        "disabled": false,
        "info": ""
    },
    {
        "id": "ca56f11f.56222",
        "type": "tab",
        "label": "Flow 2",
        "disabled": false,
        "info": ""
    },
    {
        "id": "365b9b12.158e44",
        "type": "tab",
        "label": "Flow 3",
        "disabled": false,
        "info": ""
    },
    {
        "id": "61ea69c6.f922f",
        "type": "ui_base",
        "theme": {
            "name": "theme-light",
            "lightTheme": {
                "default": "#0094CE",
                "baseColor": "#0094CE",
                "baseFont": "-apple-system,BlinkMacSystemFont,Segoe UI,Roboto,Oxygen-Sans,Ubuntu,Cantarell,Helvetica Neue,sans-serif",
                "edited": true,
                "reset": false
            },
            "darkTheme": {
                "default": "#097479",
                "baseColor": "#097479",
                "baseFont": "-apple-system,BlinkMacSystemFont,Segoe UI,Roboto,Oxygen-Sans,Ubuntu,Cantarell,Helvetica Neue,sans-serif",
                "edited": false
            },
            "customTheme": {
                "name": "Untitled Theme 1",
                "default": "#4B7930",
                "baseColor": "#4B7930",
                "baseFont": "-apple-system,BlinkMacSystemFont,Segoe UI,Roboto,Oxygen-Sans,Ubuntu,Cantarell,Helvetica Neue,sans-serif"
            },
            "themeState": {
                "base-color": {
                    "default": "#0094CE",
                    "value": "#0094CE",
                    "edited": false
                },
                "page-titlebar-backgroundColor": {
                    "value": "#0094CE",
                    "edited": false
                },
                "page-backgroundColor": {
                    "value": "#fafafa",
                    "edited": false
                },
                "page-sidebar-backgroundColor": {
                    "value": "#ffffff",
                    "edited": false
                },
                "group-textColor": {
                    "value": "#1bbfff",
                    "edited": false
                },
                "group-borderColor": {
                    "value": "#ffffff",
                    "edited": false
                },
                "group-backgroundColor": {
                    "value": "#ffffff",
                    "edited": false
                },
                "widget-textColor": {
                    "value": "#111111",
                    "edited": false
                },
                "widget-backgroundColor": {
                    "value": "#0094ce",
                    "edited": false
                },
                "widget-borderColor": {
                    "value": "#ffffff",
                    "edited": false
                },
                "base-font": {
                    "value": "-apple-system,BlinkMacSystemFont,Segoe UI,Roboto,Oxygen-Sans,Ubuntu,Cantarell,Helvetica Neue,sans-serif"
                }
            },
            "angularTheme": {
                "primary": "indigo",
                "accents": "blue",
                "warn": "red",
                "background": "grey"
            }
        },
        "site": {
            "name": "Node-RED Dashboard",
            "hideToolbar": "false",
            "allowSwipe": "false",
            "lockMenu": "false",
            "allowTempTheme": "true",
            "dateFormat": "DD/MM/YYYY",
            "sizes": {
                "sx": 48,
                "sy": 48,
                "gx": 6,
                "gy": 6,
                "cx": 6,
                "cy": 6,
                "px": 0,
                "py": 0
            }
        }
    },
    {
        "id": "15ace4cc.a989ab",
        "type": "ui_tab",
        "name": "Tab 1",
        "icon": "dashboard",
        "order": 1
    },
    {
        "id": "52458d34.ea4364",
        "type": "ui_group",
        "name": "Group 1",
        "tab": "15ace4cc.a989ab",
        "order": 1,
        "disp": true,
        "width": 10
    },
    {
        "id": "2d7b59ca.de4a06",
        "type": "mqtt-broker",
        "name": "",
        "broker": "broker.emqx.io",
        "port": "1883",
        "clientid": "",
        "usetls": false,
        "compatmode": false,
        "keepalive": "60",
        "cleansession": true,
        "birthTopic": "",
        "birthQos": "0",
        "birthPayload": "",
        "closeTopic": "",
        "closeQos": "0",
        "closePayload": "",
        "willTopic": "",
        "willQos": "0",
        "willPayload": ""
    },
    {
        "id": "5b3c8f7d.ae3b88",
        "type": "ui_button",
        "z": "255aea8e.5e0ab6",
        "name": "",
        "group": "52458d34.ea4364",
        "order": 1,
        "width": 0,
        "height": 0,
        "passthru": false,
        "label": "{{msg.label}}",
        "tooltip": "",
        "color": "",
        "bgcolor": "#{{msg.background}}",
        "icon": "amazon",
        "payload": "Hello",
        "payloadType": "str",
        "topic": "",
        "x": 550,
        "y": 220,
        "wires": [
            [
                "a511b687.bb23a"
            ]
        ]
    },
    {
        "id": "7ea35ea3.a8b2d",
        "type": "ui_switch",
        "z": "255aea8e.5e0ab6",
        "name": "",
        "label": "switch",
        "tooltip": "",
        "group": "52458d34.ea4364",
        "order": 2,
        "width": 0,
        "height": 0,
        "passthru": true,
        "decouple": "false",
        "topic": "",
        "style": "",
        "onvalue": "true",
        "onvalueType": "bool",
        "onicon": "",
        "oncolor": "",
        "offvalue": "false",
        "offvalueType": "bool",
        "officon": "",
        "offcolor": "",
        "x": 50,
        "y": 300,
        "wires": [
            [
                "a511b687.bb23a",
                "75bd3ca2.ce3d0c"
            ]
        ]
    },
    {
        "id": "efd3f726.9c508",
        "type": "ui_dropdown",
        "z": "255aea8e.5e0ab6",
        "name": "",
        "label": "",
        "tooltip": "",
        "place": "Select option",
        "group": "52458d34.ea4364",
        "order": 4,
        "width": 0,
        "height": 0,
        "passthru": true,
        "multiple": false,
        "options": [
            {
                "label": "",
                "value": "",
                "type": "str"
            }
        ],
        "payload": "",
        "topic": "",
        "x": 120,
        "y": 420,
        "wires": [
            [
                "a511b687.bb23a"
            ]
        ]
    },
    {
        "id": "8d34936e.7881d",
        "type": "ui_slider",
        "z": "255aea8e.5e0ab6",
        "name": "",
        "label": "slider",
        "tooltip": "",
        "group": "52458d34.ea4364",
        "order": 7,
        "width": 0,
        "height": 0,
        "passthru": true,
        "outs": "all",
        "topic": "",
        "min": 0,
        "max": 10,
        "step": 1,
        "x": 150,
        "y": 460,
        "wires": [
            [
                "a511b687.bb23a"
            ]
        ]
    },
    {
        "id": "32cbe550.fbbe92",
        "type": "ui_numeric",
        "z": "255aea8e.5e0ab6",
        "name": "",
        "label": "numeric",
        "tooltip": "",
        "group": "52458d34.ea4364",
        "order": 8,
        "width": 0,
        "height": 0,
        "wrap": false,
        "passthru": true,
        "topic": "",
        "format": "{{value}}",
        "min": 0,
        "max": 10,
        "step": 1,
        "x": 180,
        "y": 500,
        "wires": [
            [
                "a511b687.bb23a"
            ]
        ]
    },
    {
        "id": "4d6e25f8.5fba24",
        "type": "ui_text_input",
        "z": "255aea8e.5e0ab6",
        "name": "",
        "label": "",
        "tooltip": "",
        "group": "52458d34.ea4364",
        "order": 6,
        "width": 0,
        "height": 0,
        "passthru": true,
        "mode": "text",
        "delay": 300,
        "topic": "",
        "x": 60,
        "y": 360,
        "wires": [
            [
                "a511b687.bb23a",
                "9e68a914.6403d8"
            ]
        ]
    },
    {
        "id": "b1da6676.03f1d",
        "type": "ui_date_picker",
        "z": "255aea8e.5e0ab6",
        "name": "",
        "label": "date",
        "group": "52458d34.ea4364",
        "order": 5,
        "width": 0,
        "height": 0,
        "passthru": true,
        "topic": "",
        "x": 290,
        "y": 580,
        "wires": [
            [
                "a511b687.bb23a"
            ]
        ]
    },
    {
        "id": "6200a842.c61a7",
        "type": "ui_colour_picker",
        "z": "255aea8e.5e0ab6",
        "name": "",
        "label": "",
        "group": "52458d34.ea4364",
        "format": "hex",
        "outformat": "string",
        "showSwatch": true,
        "showPicker": true,
        "showValue": true,
        "showHue": false,
        "showAlpha": false,
        "showLightness": true,
        "square": "false",
        "dynOutput": "false",
        "order": 3,
        "width": 0,
        "height": 0,
        "passthru": true,
        "topic": "",
        "x": 70,
        "y": 260,
        "wires": [
            [
                "a511b687.bb23a",
                "75c3aa8f.8b41f4"
            ]
        ]
    },
    {
        "id": "a511b687.bb23a",
        "type": "debug",
        "z": "255aea8e.5e0ab6",
        "name": "",
        "active": false,
        "tosidebar": true,
        "console": false,
        "tostatus": false,
        "complete": "true",
        "targetType": "full",
        "statusVal": "",
        "statusType": "auto",
        "x": 450,
        "y": 420,
        "wires": []
    },
    {
        "id": "75bd3ca2.ce3d0c",
        "type": "change",
        "z": "255aea8e.5e0ab6",
        "name": "",
        "rules": [
            {
                "t": "set",
                "p": "enabled",
                "pt": "msg",
                "to": "payload",
                "tot": "msg"
            },
            {
                "t": "delete",
                "p": "payload",
                "pt": "msg"
            }
        ],
        "action": "",
        "property": "",
        "from": "",
        "to": "",
        "reg": false,
        "x": 200,
        "y": 300,
        "wires": [
            [
                "5b3c8f7d.ae3b88",
                "ab745079.b78948"
            ]
        ]
    },
    {
        "id": "75c3aa8f.8b41f4",
        "type": "change",
        "z": "255aea8e.5e0ab6",
        "name": "",
        "rules": [
            {
                "t": "set",
                "p": "background",
                "pt": "msg",
                "to": "payload",
                "tot": "msg"
            },
            {
                "t": "set",
                "p": "label",
                "pt": "msg",
                "to": "null",
                "tot": "jsonata"
            }
        ],
        "action": "",
        "property": "",
        "from": "",
        "to": "",
        "reg": false,
        "x": 220,
        "y": 200,
        "wires": [
            [
                "5b3c8f7d.ae3b88",
                "ab745079.b78948"
            ]
        ]
    },
    {
        "id": "9e68a914.6403d8",
        "type": "change",
        "z": "255aea8e.5e0ab6",
        "name": "",
        "rules": [
            {
                "t": "set",
                "p": "label",
                "pt": "msg",
                "to": "payload",
                "tot": "msg"
            },
            {
                "t": "delete",
                "p": "payload",
                "pt": "msg"
            }
        ],
        "action": "",
        "property": "",
        "from": "",
        "to": "",
        "reg": false,
        "x": 240,
        "y": 340,
        "wires": [
            [
                "5b3c8f7d.ae3b88",
                "ab745079.b78948"
            ]
        ]
    },
    {
        "id": "ab745079.b78948",
        "type": "debug",
        "z": "255aea8e.5e0ab6",
        "name": "",
        "active": true,
        "tosidebar": true,
        "console": false,
        "tostatus": false,
        "complete": "true",
        "targetType": "full",
        "statusVal": "",
        "statusType": "auto",
        "x": 400,
        "y": 160,
        "wires": []
    },
    {
        "id": "506499ef.672de8",
        "type": "mqtt out",
        "z": "ca56f11f.56222",
        "name": "",
        "topic": "",
        "qos": "",
        "retain": "",
        "broker": "2d7b59ca.de4a06",
        "x": 550,
        "y": 280,
        "wires": []
    },
    {
        "id": "9b57dd4d.19f82",
        "type": "inject",
        "z": "ca56f11f.56222",
        "name": "",
        "props": [
            {
                "p": "payload"
            },
            {
                "p": "topic",
                "vt": "str"
            }
        ],
        "repeat": "5",
        "crontab": "",
        "once": false,
        "onceDelay": 0.1,
        "topic": "rwth/cr/checkin",
        "payload": "Node-RED is here!",
        "payloadType": "str",
        "x": 250,
        "y": 260,
        "wires": [
            []
        ]
    },
    {
        "id": "fcc3681e.05d99",
        "type": "http request",
        "z": "365b9b12.158e44",
        "name": "",
        "method": "GET",
        "ret": "txt",
        "paytoqs": "ignore",
        "url": "https://www.urby.com/jersey-city",
        "tls": "",
        "persist": false,
        "proxy": "",
        "authType": "",
        "x": 250,
        "y": 240,
        "wires": [
            [
                "9a64e221.7e203"
            ]
        ]
    },
    {
        "id": "26697ad8.71f1a6",
        "type": "inject",
        "z": "365b9b12.158e44",
        "name": "",
        "props": [
            {
                "p": "payload"
            },
            {
                "p": "topic",
                "vt": "str"
            }
        ],
        "repeat": "",
        "crontab": "",
        "once": false,
        "onceDelay": 0.1,
        "topic": "Hello World",
        "payload": "",
        "payloadType": "date",
        "x": 180,
        "y": 180,
        "wires": [
            [
                "fcc3681e.05d99"
            ]
        ]
    },
    {
        "id": "152e5fc7.781618",
        "type": "debug",
        "z": "365b9b12.158e44",
        "name": "",
        "active": true,
        "tosidebar": true,
        "console": false,
        "tostatus": false,
        "complete": "payload",
        "targetType": "msg",
        "statusVal": "",
        "statusType": "auto",
        "x": 670,
        "y": 200,
        "wires": []
    },
    {
        "id": "9a64e221.7e203",
        "type": "function",
        "z": "365b9b12.158e44",
        "name": "",
        "func": "let re = /const APARTMENTS\\s*=\\s*(.+);/\nvar found = msg.payload.match(re);\n\nreturn {\"payload\": eval(found[1])};",
        "outputs": 1,
        "noerr": 0,
        "initialize": "",
        "finalize": "",
        "x": 320,
        "y": 300,
        "wires": [
            [
                "bc3daaad.1bad5",
                "152e5fc7.781618"
            ]
        ]
    },
    {
        "id": "bc3daaad.1bad5",
        "type": "function",
        "z": "365b9b12.158e44",
        "name": "",
        "func": "var suitable_apt = [];\n\nfor (var i in msg.payload) {\n    let apt = msg.payload[i];\n    let ending = apt.unitName.substring(apt.unitName.length-2, apt.unitName.length);\n    if (apt.unitType == \"M4+\" &&\n        (ending == \"02\" || ending == \"11\")) {\n            \n        suitable_apt.push(apt.unitName);        \n    }\n}\nreturn {\"payload\": suitable_apt.join(\", \")};",
        "outputs": 1,
        "noerr": 0,
        "initialize": "",
        "finalize": "",
        "x": 400,
        "y": 360,
        "wires": [
            []
        ]
    }
]